<?xml version="1.0" encoding="utf-8"?>
<!-- Generator: Adobe Illustrator 18.0.0, SVG Export Plug-In . SVG Version: 6.00 Build 0)  -->
<!DOCTYPE svg PUBLIC "-//W3C//DTD SVG 1.1//EN" "http://www.w3.org/Graphics/SVG/1.1/DTD/svg11.dtd">
<svg version="1.1" id="Layer_1" xmlns="http://www.w3.org/2000/svg" xmlns:xlink="http://www.w3.org/1999/xlink" x="0px" y="0px"
	 viewBox="0 0 779.6 271.8" enable-background="new 0 0 779.6 271.8" xml:space="preserve">
<g id="Monochrome_Dark_Logo">
	<path d="M775.2,100.2c0,3.3-1,5.5-2.7,6.9c-1.7,1.4-3.8,1.9-5.9,1.9h-76c0,7,0.6,12.4,1.9,17.5c1.3,5.1,3.4,9.6,6.4,13.3
		c3,3.7,6.9,6.5,11.7,8.5c4.8,2,10.7,3,17.7,3c5.5,0,10.4-0.4,14.7-1.3c4.3-0.9,8-1.9,11.1-3c3.1-1.1,5.7-2.1,7.7-3
		c2-0.9,3.5-1.3,4.6-1.3c0.6,0,1.1,0.2,1.6,0.4c0.5,0.3,0.8,0.7,1.1,1.3c0.3,0.6,0.5,1.4,0.6,2.5c0.1,1.1,0.2,2.4,0.2,3.9
		c0,1.1,0,2.1-0.1,2.9c-0.1,0.8-0.2,1.5-0.3,2.2s-0.3,1.2-0.6,1.7c-0.3,0.5-0.7,1-1.2,1.5c-0.5,0.5-1.9,1.2-4.2,2.3
		c-2.3,1.1-5.3,2.1-9,3.1c-3.7,1-7.9,1.9-12.8,2.8c-4.8,0.8-10,1.2-15.5,1.2c-9.5,0-17.8-1.3-24.9-4c-7.1-2.6-13.1-6.6-18-11.8
		c-4.9-5.2-8.6-11.8-11-19.6c-2.5-7.9-3.7-17-3.7-27.4c0-9.9,1.3-18.8,3.8-26.7c2.6-7.9,6.3-14.6,11.1-20.1
		c4.8-5.5,10.7-9.7,17.5-12.7c6.8-3,14.5-4.4,23-4.4c9.1,0,16.8,1.5,23.1,4.4c6.4,2.9,11.6,6.8,15.7,11.7c4.1,4.9,7.3,10.7,9.2,17.3
		c1.9,6.6,3.1,13.7,3.1,21.2V100.2z M753.5,94c0.3-11-2.2-19.9-7.4-26.2c-5.2-6.3-12.9-9.5-23.2-9.5c-5.2,0-9.9,1-13.8,2.9
		c-4,2-7.3,4.6-9.9,7.8c-2.7,3.3-4.7,7.1-6.2,11.4c-1.5,4.3-2.3,8.6-2.5,13.6H753.5z"/>
	<path d="M646.2,162.9c0,0.7-0.4,1.3-0.8,1.7c-0.3,0.5-1,0.9-1.8,1.2s-1.9,0.6-3.3,0.8c-1.4,0.2-3.1,0.3-5.2,0.3
		c-2.1,0-3.9-0.1-5.3-0.3c-1.4-0.2-2.4-0.4-3.2-0.8s-1.5-0.7-1.8-1.2c-0.3-0.5-0.7-1-0.7-1.7V95.3c0-6.6-0.3-11.9-1.4-15.9
		c-1-4-2.4-7.5-4.4-10.4c-2-2.9-4.5-5.1-7.6-6.7c-3.1-1.5-6.7-2.3-10.8-2.3c-5.3,0-10.7,1.9-16,5.6c-5.3,3.8-10.8,9.3-16.8,16.5
		v80.7c0,0.7,0,1.3-0.4,1.7c-0.3,0.5-0.8,0.9-1.6,1.2s-1.8,0.6-3.2,0.8c-1.4,0.2-3.1,0.3-5.2,0.3c-2.1,0-3.8-0.1-5.1-0.3
		c-1.4-0.2-2.5-0.4-3.3-0.8c-0.8-0.3-1.4-0.7-1.7-1.2c-0.3-0.5-0.5-1-0.5-1.7V47.5c0-0.7,0.2-1.3,0.4-1.7c0.3-0.5,0.8-0.9,1.6-1.3
		s1.8-0.6,3-0.8c1.2-0.1,2.8-0.2,4.8-0.2c1.9,0,3.4,0.1,4.7,0.2c1.2,0.1,2.2,0.4,2.9,0.8c0.7,0.4,1.1,0.8,1.4,1.3
		c0.3,0.5,0.3,1,0.3,1.7v15.3c7-7.3,13.1-12.6,19.5-16c6.5-3.4,13-5.1,19.6-5.1c7.7,0,14.2,1.3,19.5,3.9c5.3,2.6,9.5,6.1,12.8,10.5
		c3.2,4.4,5.8,9.5,7.2,15.3c1.4,5.9,2.4,12.9,2.4,21.1V162.9z"/>
	<path d="M507.4,44c2.6,0,4.4,0.6,5.3,1.8c0.9,1.2,1.5,2.9,1.5,5.1v112c0,0.7-0.2,1.3-0.6,1.7c-0.3,0.5-1,0.9-1.8,1.2
		c-0.8,0.3-1.9,0.6-3.3,0.8c-1.4,0.2-3,0.3-5,0.3c-2.1,0-3.9-0.1-5.3-0.3c-1.4-0.2-2.5-0.4-3.3-0.8c-0.8-0.3-1.2-0.7-1.5-1.2
		c-0.3-0.5-0.3-1-0.3-1.7V62h-60v64.1c0,8,1.1,14,3.5,18c2.4,4.1,6.5,6.1,12.6,6.1c2,0,3.7-0.2,5.2-0.6s2.9-0.8,4.1-1.2
		c1.2-0.4,2.2-0.8,3.1-1.2c0.9-0.4,1.6-0.6,2.3-0.6c0.4,0,0.8,0.1,1.2,0.3c0.4,0.2,0.7,0.6,0.9,1.2c0.2,0.6,0.4,1.4,0.6,2.4
		c0.2,1,0.3,2.3,0.3,3.8c0,2.5-0.2,4.4-0.5,5.8c-0.3,1.4-0.9,2.5-1.5,3.2c-0.7,0.7-1.7,1.4-3.1,2c-1.4,0.6-2.9,1.1-4.7,1.5
		c-1.8,0.4-3.6,0.7-5.6,1c-2,0.3-3.9,0.4-5.9,0.4c-6,0-11.1-0.8-15.4-2.4c-4.3-1.6-7.8-4-10.5-7.2c-2.7-3.2-4.6-7.3-5.9-12.2
		c-1.2-4.9-1.7-10.7-1.7-17.4V62h-16.4c-1.3,0-2.3-0.8-3.1-2.2c-0.8-1.4-1.2-3.7-1.2-6.7c0-1.6,0.1-3,0.3-4.1c0.2-1.1,0.5-2,0.8-2.8
		c0.3-0.7,0.8-1.3,1.3-1.6c0.6-0.3,1.2-0.5,1.9-0.5h16.3V16.7c0-0.6,0-1.2,0.3-1.7c0.3-0.5,0.8-1,1.6-1.3c0.8-0.4,1.9-0.7,3.2-0.8
		c1.4-0.2,3.1-0.3,5.1-0.3c2.1,0,3.9,0.1,5.3,0.3c1.4,0.2,2.4,0.4,3.2,0.8s1.4,0.8,1.7,1.3c0.3,0.5,0.5,1.1,0.5,1.7V44H507.4z
		 M516.5,12.6c0,5-0.9,8.3-2.8,10.1c-1.9,1.8-5.3,2.7-10.4,2.7c-5,0-8.4-0.9-10.2-2.6c-1.8-1.8-2.8-5.1-2.8-9.9
		c0-5,0.9-8.3,2.8-10.1C495,0.9,498.5,0,503.5,0c5,0,8.4,0.9,10.2,2.6C515.6,4.4,516.5,7.7,516.5,12.6z"/>
	<path id="Sign_Monochrome_1_" d="M368.4,62.4c-11.5-11.5-26.8-17.8-43.1-17.8c-16.3,0-31.7,6.4-43.3,18l-15.3,15.3
		c-1.8,1.8-1.8,4.8,0,6.7l7.8,7.8c1.8,1.8,4.8,1.8,6.7,0L296.4,77c7.7-7.7,18-12,28.9-12c10.8,0,21,4.2,28.6,11.9
		c7.7,7.7,11.9,17.7,11.9,29c0,11.2-4.2,21.3-11.9,29c-7.7,7.7-17.8,11.9-28.6,11.9c-10.9,0-21.2-4.3-28.9-12l-28.8-28.8l-43.3-43.3
		c-11.6-11.6-27-18-43.3-18c-16.3,0-31.6,6.3-43.1,17.9c-11.5,11.5-17.8,27.1-17.8,43.4c0,8.2,1.5,16.1,4.6,23.5
		c3,7.4,7.5,14.2,13.3,19.9c5.8,5.8,12.5,10.2,19.7,13.3c7.3,3,15.2,4.6,23.3,4.6c8.2,0,16.1-1.6,23.4-4.6c7.2-3,13.5-7.4,19.2-13.1
		l14.4,14.9v-43.9V120h0h-42.9l14.5,14.7c-3.8,3.8-8.3,6.8-13.1,8.8c-4.9,2-10.2,3.1-15.6,3.1c-5.4,0-10.7-1-15.5-3.1
		c-4.9-2-9.3-5-13.1-8.8c-3.8-3.8-6.8-8.3-8.8-13.2c-2-4.9-3.1-10.2-3.1-15.8c0-10.9,4.2-21.3,11.9-29C160,69.2,170.2,65,181,65
		c10.9,0,21.2,4.3,28.9,12l28.8,28.8l43.3,43.3c11.6,11.6,27,18,43.3,18c16.3,0,31.6-6.4,43.1-17.9c11.6-11.6,17.9-27.1,17.9-43.4
		C386.3,89.5,380,74,368.4,62.4z"/>
	<g>
		<path d="M111.1,162.8c0,0.7-0.1,1.3-0.4,1.8s-0.8,0.9-1.7,1.3c-0.9,0.3-2.1,0.6-3.6,0.8c-1.5,0.2-3.6,0.3-6.2,0.3
			c-2.2,0-4-0.1-5.5-0.3c-1.4-0.2-2.5-0.4-3.4-0.8c-0.9-0.4-1.5-0.9-2-1.6c-0.5-0.7-0.9-1.5-1.2-2.6L72,122.5
			c-1.8-4.4-3.7-8.5-5.6-12.2c-1.9-3.7-4.2-6.9-6.9-9.6c-2.7-2.7-5.8-4.8-9.4-6.3c-3.6-1.5-7.9-2.3-13-2.3h-15v70.8
			c0,0.7-0.1,1.3-0.4,1.8s-0.9,0.9-1.7,1.2c-0.8,0.3-1.9,0.6-3.3,0.8c-1.4,0.2-3.2,0.3-5.3,0.3c-2.1,0-3.9-0.1-5.3-0.3
			c-1.4-0.2-2.5-0.5-3.4-0.8c-0.9-0.3-1.6-0.7-1.9-1.2c-0.3-0.5-0.6-1.1-0.6-1.8V9.1c0-3.3,1-5.7,2.7-7.1C4.7,0.7,6.6,0,8.6,0h35.3
			c4.2,0,7.7,0.2,10.5,0.4c2.8,0.2,5.3,0.5,7.5,0.7c6.4,1.1,12.1,2.9,17,5.3c4.9,2.4,9,5.4,12.4,9.1c3.3,3.7,5.8,7.9,7.5,12.6
			c1.7,4.7,2.5,10,2.5,15.7c0,5.6-0.7,10.5-2.2,14.9c-1.5,4.4-3.7,8.3-6.5,11.7c-2.8,3.4-6.2,6.3-10.1,8.8
			c-3.9,2.5-8.3,4.6-13.2,6.3c2.7,1.2,5.2,2.7,7.4,4.6c2.2,1.8,4.3,4,6.2,6.6c1.9,2.6,3.7,5.5,5.5,8.8c1.7,3.3,3.4,7.1,5.1,11.3
			l14.9,36.6c1.2,3.1,2,5.2,2.3,6.5C110.9,161.1,111.1,162.1,111.1,162.8z M77.9,46.2c0-6.5-1.5-12-4.4-16.5
			c-2.9-4.5-7.8-7.7-14.6-9.7c-2.1-0.6-4.6-1.2-7.2-1.5S45.4,18,41,18H22.2v56H44c5.8,0,10.8-0.6,15.1-2s7.8-3.3,10.6-5.8
			c2.8-2.5,4.9-5.5,6.2-8.9C77.2,53.9,77.9,50.2,77.9,46.2z"/>
	</g>
</g>
<g>
	<path d="M45.2,225c0,8.1-1.9,14.7-5.6,19.7c-3.7,5-8.8,7.5-15.1,7.5c-6.5,0-11.6-2.1-15.3-6.2v25.8H0v-74.1h8.4l0.4,5.9
		c3.7-4.6,8.9-6.9,15.5-6.9c6.4,0,11.5,2.4,15.3,7.3c3.7,4.8,5.6,11.6,5.6,20.2V225z M36.1,224c0-6-1.3-10.8-3.9-14.3
		c-2.6-3.5-6.1-5.2-10.6-5.2c-5.5,0-9.7,2.5-12.5,7.4v25.6c2.7,4.9,6.9,7.3,12.6,7.3c4.4,0,7.9-1.7,10.5-5.2S36.1,230.8,36.1,224z"
		/>
	<path d="M82.7,205.9c-1.4-0.2-2.9-0.3-4.5-0.3c-6,0-10.1,2.6-12.2,7.7v38h-9.2v-53.5h8.9l0.1,6.2c3-4.8,7.3-7.2,12.8-7.2
		c1.8,0,3.1,0.2,4.1,0.7V205.9z"/>
	<path d="M87.7,223.9c0-5.2,1-10,3.1-14.1c2.1-4.2,4.9-7.4,8.6-9.7c3.7-2.3,7.9-3.4,12.6-3.4c7.3,0,13.2,2.5,17.7,7.6
		s6.8,11.8,6.8,20.1v0.6c0,5.2-1,9.9-3,14c-2,4.1-4.8,7.4-8.6,9.7c-3.7,2.3-8,3.5-12.8,3.5c-7.3,0-13.1-2.5-17.6-7.6
		c-4.5-5-6.8-11.7-6.8-20V223.9z M96.9,225c0,5.9,1.4,10.7,4.1,14.3s6.4,5.4,11.1,5.4c4.7,0,8.3-1.8,11.1-5.5
		c2.7-3.6,4.1-8.7,4.1-15.3c0-5.9-1.4-10.6-4.2-14.3c-2.8-3.6-6.5-5.5-11.1-5.5c-4.5,0-8.2,1.8-10.9,5.4
		C98.3,213.2,96.9,218.3,96.9,225z"/>
	<path d="M145.7,224c0-8.2,1.9-14.8,5.8-19.8c3.9-5,9-7.5,15.3-7.5c6.3,0,11.2,2.1,14.9,6.4v-27.9h9.2v76h-8.4l-0.4-5.7
		c-3.7,4.5-8.8,6.7-15.3,6.7c-6.2,0-11.3-2.5-15.2-7.6c-3.9-5.1-5.9-11.7-5.9-19.9V224z M154.8,225c0,6.1,1.3,10.8,3.8,14.2
		c2.5,3.4,6,5.1,10.4,5.1c5.8,0,10-2.6,12.7-7.8V212c-2.7-5-6.9-7.6-12.6-7.6c-4.5,0-8,1.7-10.5,5.2
		C156.1,213.1,154.8,218.2,154.8,225z"/>
	<path d="M238.1,245.9c-3.6,4.2-8.8,6.3-15.7,6.3c-5.7,0-10.1-1.7-13-5c-3-3.3-4.5-8.2-4.5-14.7v-34.8h9.2v34.6
		c0,8.1,3.3,12.2,9.9,12.2c7,0,11.6-2.6,14-7.8v-38.9h9.2v53.5h-8.7L238.1,245.9z"/>
	<path d="M282.4,244.7c3.3,0,6.1-1,8.6-3c2.4-2,3.8-4.5,4.1-7.4h8.7c-0.2,3.1-1.2,6-3.2,8.8c-1.9,2.8-4.5,5-7.8,6.6
		c-3.2,1.6-6.7,2.5-10.3,2.5c-7.3,0-13.1-2.4-17.4-7.3c-4.3-4.9-6.5-11.5-6.5-20v-1.5c0-5.2,1-9.8,2.9-13.9s4.7-7.2,8.2-9.4
		c3.6-2.2,7.8-3.4,12.7-3.4c6,0,11,1.8,15,5.4c4,3.6,6.1,8.3,6.4,14H295c-0.3-3.5-1.6-6.3-3.9-8.5c-2.4-2.2-5.3-3.3-8.7-3.3
		c-4.7,0-8.3,1.7-10.8,5s-3.8,8.2-3.8,14.5v1.7c0,6.2,1.3,10.9,3.8,14.2C274,243,277.7,244.7,282.4,244.7z"/>
	<path d="M326.3,184.7v13h10v7.1h-10V238c0,2.1,0.4,3.8,1.3,4.8c0.9,1.1,2.4,1.6,4.6,1.6c1.1,0,2.5-0.2,4.4-0.6v7.4
		c-2.4,0.7-4.7,1-7,1c-4.1,0-7.2-1.2-9.3-3.7c-2.1-2.5-3.1-6-3.1-10.5v-33.2h-9.7v-7.1h9.7v-13H326.3z"/>
	<path d="M347.1,183.5c0-1.5,0.5-2.7,1.4-3.8c0.9-1,2.3-1.5,4-1.5s3.1,0.5,4.1,1.5c0.9,1,1.4,2.3,1.4,3.8c0,1.5-0.5,2.7-1.4,3.7
		c-0.9,1-2.3,1.5-4.1,1.5s-3.1-0.5-4-1.5C347.5,186.2,347.1,184.9,347.1,183.5z M357,251.2h-9.2v-53.5h9.2V251.2z"/>
	<path d="M369.2,223.9c0-5.2,1-10,3.1-14.1c2.1-4.2,4.9-7.4,8.6-9.7c3.7-2.3,7.9-3.4,12.6-3.4c7.3,0,13.2,2.5,17.7,7.6
		s6.8,11.8,6.8,20.1v0.6c0,5.2-1,9.9-3,14c-2,4.1-4.8,7.4-8.6,9.7c-3.7,2.3-8,3.5-12.8,3.5c-7.3,0-13.1-2.5-17.6-7.6
		c-4.5-5-6.8-11.7-6.8-20V223.9z M378.4,225c0,5.9,1.4,10.7,4.1,14.3s6.4,5.4,11.1,5.4c4.7,0,8.3-1.8,11.1-5.5
		c2.7-3.6,4.1-8.7,4.1-15.3c0-5.9-1.4-10.6-4.2-14.3c-2.8-3.6-6.5-5.5-11.1-5.5c-4.5,0-8.2,1.8-10.9,5.4
		C379.8,213.2,378.4,218.3,378.4,225z"/>
	<path d="M438,197.7l0.3,6.7c4.1-5.1,9.4-7.7,16-7.7c11.3,0,17,6.4,17.1,19.1v35.4h-9.2v-35.4c0-3.9-0.9-6.7-2.6-8.6
		c-1.7-1.8-4.4-2.8-8.1-2.8c-3,0-5.6,0.8-7.8,2.4c-2.2,1.6-4,3.7-5.2,6.2v38.1h-9.2v-53.5H438z"/>
	<path d="M541.5,237c0-2.5-0.9-4.4-2.8-5.8c-1.9-1.4-5.1-2.5-9.7-3.5c-4.6-1-8.3-2.2-11-3.6c-2.7-1.4-4.7-3-6-4.9
		c-1.3-1.9-2-4.2-2-6.8c0-4.4,1.9-8.1,5.6-11.1c3.7-3,8.5-4.6,14.2-4.6c6.1,0,11,1.6,14.8,4.7c3.8,3.1,5.7,7.1,5.7,12H541
		c0-2.5-1.1-4.7-3.2-6.5c-2.1-1.8-4.8-2.7-8-2.7c-3.3,0-5.9,0.7-7.8,2.2s-2.8,3.3-2.8,5.7c0,2.2,0.9,3.9,2.6,5
		c1.7,1.1,4.9,2.2,9.5,3.2c4.6,1,8.3,2.2,11.1,3.7s4.9,3.1,6.3,5.1c1.4,2,2.1,4.4,2.1,7.3c0,4.8-1.9,8.6-5.7,11.5
		c-3.8,2.9-8.8,4.3-14.9,4.3c-4.3,0-8.1-0.8-11.4-2.3s-5.9-3.6-7.7-6.4s-2.8-5.7-2.8-8.8h9.2c0.2,3.1,1.4,5.5,3.7,7.3
		c2.3,1.8,5.3,2.7,9.1,2.7c3.5,0,6.2-0.7,8.3-2.1C540.5,241.2,541.5,239.3,541.5,237z"/>
	<path d="M575,184.7v13h10v7.1h-10V238c0,2.1,0.4,3.8,1.3,4.8c0.9,1.1,2.4,1.6,4.6,1.6c1.1,0,2.5-0.2,4.4-0.6v7.4
		c-2.4,0.7-4.7,1-7,1c-4.1,0-7.2-1.2-9.3-3.7c-2.1-2.5-3.1-6-3.1-10.5v-33.2h-9.7v-7.1h9.7v-13H575z"/>
	<path d="M628.7,245.9c-3.6,4.2-8.8,6.3-15.7,6.3c-5.7,0-10.1-1.7-13-5c-3-3.3-4.5-8.2-4.5-14.7v-34.8h9.2v34.6
		c0,8.1,3.3,12.2,9.9,12.2c7,0,11.6-2.6,14-7.8v-38.9h9.2v53.5h-8.7L628.7,245.9z"/>
	<path d="M649.3,224c0-8.2,1.9-14.8,5.8-19.8c3.9-5,9-7.5,15.3-7.5c6.3,0,11.2,2.1,14.9,6.4v-27.9h9.2v76h-8.4l-0.4-5.7
		c-3.7,4.5-8.8,6.7-15.3,6.7c-6.2,0-11.3-2.5-15.2-7.6c-3.9-5.1-5.9-11.7-5.9-19.9V224z M658.5,225c0,6.1,1.3,10.8,3.8,14.2
		c2.5,3.4,6,5.1,10.4,5.1c5.8,0,10-2.6,12.7-7.8V212c-2.7-5-6.9-7.6-12.6-7.6c-4.5,0-8,1.7-10.5,5.2
		C659.7,213.1,658.5,218.2,658.5,225z"/>
	<path d="M708.7,183.5c0-1.5,0.5-2.7,1.4-3.8c0.9-1,2.3-1.5,4-1.5s3.1,0.5,4.1,1.5c0.9,1,1.4,2.3,1.4,3.8c0,1.5-0.5,2.7-1.4,3.7
		c-0.9,1-2.3,1.5-4.1,1.5s-3.1-0.5-4-1.5C709.2,186.2,708.7,184.9,708.7,183.5z M718.6,251.2h-9.2v-53.5h9.2V251.2z"/>
	<path d="M730.8,223.9c0-5.2,1-10,3.1-14.1c2.1-4.2,4.9-7.4,8.6-9.7c3.7-2.3,7.9-3.4,12.6-3.4c7.3,0,13.2,2.5,17.7,7.6
		s6.8,11.8,6.8,20.1v0.6c0,5.2-1,9.9-3,14c-2,4.1-4.8,7.4-8.6,9.7c-3.7,2.3-8,3.5-12.8,3.5c-7.3,0-13.1-2.5-17.6-7.6
		c-4.5-5-6.8-11.7-6.8-20V223.9z M740,225c0,5.9,1.4,10.7,4.1,14.3s6.4,5.4,11.1,5.4c4.7,0,8.3-1.8,11.1-5.5
		c2.7-3.6,4.1-8.7,4.1-15.3c0-5.9-1.4-10.6-4.2-14.3c-2.8-3.6-6.5-5.5-11.1-5.5c-4.5,0-8.2,1.8-10.9,5.4
		C741.4,213.2,740,218.3,740,225z"/>
</g>
</svg>
